<?xml version="1.0" encoding="UTF-8"?>
<svg width="101px" height="118px" viewBox="0 0 101 118" version="1.1" xmlns="http://www.w3.org/2000/svg" xmlns:xlink="http://www.w3.org/1999/xlink">
    <!-- Generator: Sketch 49.3 (51167) - http://www.bohemiancoding.com/sketch -->
    <title>Group 18</title>
    <desc>Created with Sketch.</desc>
    <defs></defs>
    <g id="Page-1" stroke="none" stroke-width="1" fill="none" fill-rule="evenodd">
        <g id="Desktop-HD-1" transform="translate(-830.000000, -5475.000000)">
            <g id="Group-18" transform="translate(825.000000, 5475.000000)">
                <g id="Group-17">
                    <path d="M86.663389,53.4443196 C91.818389,52.1403196 96.786389,45.8503196 92.487389,39.5433196 C97.336389,38.6213196 101.636389,29.6903196 94.299389,25.5983196 C99.219389,24.8763196 102.172389,13.6513196 93.393389,11.9113196 C93.393389,11.9113196 95.876389,4.79531959 89.911389,1.24731959 C82.811389,-2.97468041 78.112389,4.87531959 78.112389,4.87531959 C71.640389,-1.72968041 60.441389,4.24531959 63.389389,14.2263196 C51.176389,14.5573196 51.474389,29.4253196 58.111389,30.8723196 C46.960389,38.0853196 53.449389,46.9963196 58.870389,48.3453196 C49.619389,56.4093196 60.486389,61.2243196 64.050389,64.9123196 C65.138389,66.0393196 66.174389,67.0823196 68.105389,72.1393196 C70.542389,78.5163196 76.384389,77.0883196 77.634389,71.0153196 C79.392389,62.4693196 90.522389,61.7773196 86.663389,53.4443196" id="Fill-135" fill="#107E40"></path>
                    <path d="M36.3831738,98.2404511 C31.6461738,98.7014511 25.5581738,94.9064511 27.2711738,88.2934511 C22.9081738,88.9834511 16.5831738,82.7614511 21.5251738,77.0934511 C17.1621738,77.9744511 11.2781738,69.4134511 18.1461738,65.2904511 C18.1461738,65.2904511 13.9011738,60.0484511 17.8531738,55.2544511 C22.5561738,49.5494511 28.8891738,54.7404511 28.8891738,54.7404511 C32.3421738,47.2174511 43.5841738,48.8614511 44.1211738,58.1614511 C54.5091738,54.7454511 58.7571738,67.3594511 53.6041738,70.5864511 C65.1791738,73.2874511 62.4101738,82.7574511 58.2521738,85.5344511 C68.4851738,89.5274511 60.7881738,96.8714511 58.9021738,101.057451 C58.3261738,102.335451 57.7691738,103.527451 57.6721738,108.371451 C57.5501738,114.481451 52.1971738,115.046451 49.3061738,110.308451 C45.2391738,103.641451 35.6541738,106.426451 36.3831738,98.2404511" id="Fill-139" fill="#309B46" transform="translate(39.226667, 81.731049) rotate(291.000000) translate(-39.226667, -81.731049) "></path>
                    <path d="M94.5954651,105.979743 C97.931396,107.167048 103.832048,103.198366 100.773753,98.0043576 C104.081705,99.3415996 109.980205,93.4646219 105.176464,89.2039566 C105.176464,89.2039566 109.294366,85.700153 106.888191,81.3404858 C104.024312,76.1522165 98.2692935,79.3073615 98.2692935,79.3073615 C96.658003,72.8715257 87.5591617,72.5092364 85.7642157,79.7564567 C78.0844005,75.532379 72.8767612,84.8442894 76.4609141,88.1465024 C66.9431085,88.5676188 67.7279491,96.4368288 70.5946975,99.237576 C61.9435166,100.874693 66.924456,107.795494 67.7932329,111.371038 C68.0579551,112.463645 85.3165553,119.030049 85.949306,112.472972 C89.6130908,113.53473 94.9699502,111.442779 94.5954651,105.979743 Z" id="Fill-137" fill="#64A070" transform="translate(86.611419, 94.873374) rotate(101.000000) translate(-86.611419, -94.873374) "></path>
                </g>
            </g>
        </g>
    </g>
</svg>