<?xml version="1.0" encoding="UTF-8"?>
<svg width="76px" height="95px" viewBox="0 0 76 95" version="1.1" xmlns="http://www.w3.org/2000/svg" xmlns:xlink="http://www.w3.org/1999/xlink">
    <!-- Generator: Sketch 49.3 (51167) - http://www.bohemiancoding.com/sketch -->
    <title>Group 16</title>
    <desc>Created with Sketch.</desc>
    <defs></defs>
    <g id="Page-1" stroke="none" stroke-width="1" fill="none" fill-rule="evenodd">
        <g id="Desktop-HD-1" transform="translate(-444.000000, -5620.000000)">
            <g id="Group-16" transform="translate(440.000000, 5612.000000)">
                <path d="M12.7210103,21.5992938 C12.650515,33.8714158 17.805319,44.2586843 22.8231228,50.7581105 C27.4246051,56.7179643 38.0122042,66.0294061 38.0122042,66.0294061 C38.81758,67.6076391 42.4700357,53.4632735 41.5821937,33.9643311 C41.2250617,26.1216149 39.1820275,18.5616267 33.9633786,11.6852298 C32.0846118,9.20903667 25.2133132,1.22694749 19.2664343,3.57770495 C13.0987588,6.01606827 12.7363064,18.8961219 12.7210103,21.5992938" id="Fill-197" fill="#26862F" transform="translate(27.220295, 34.649568) rotate(-27.000000) translate(-27.220295, -34.649568) "></path>
                <path d="M34.0005424,69.0569342 C33.9470632,78.4071223 37.8576042,86.3212316 41.6642139,91.2731754 C45.1549936,95.8140164 53.1869654,102.908448 53.1869654,102.908448 C53.7979401,104.110911 56.5687685,93.334252 55.8952332,78.477915 C55.6243055,72.5025121 54.0744175,66.7425211 50.1154425,61.5033616 C48.6901711,59.6167382 43.4774618,53.5351465 38.9660365,55.3261998 C34.2871102,57.1840004 34.0121464,66.9973746 34.0005424,69.0569342" id="Fill-197" fill="#3E9746" transform="translate(45.000000, 79.000000) rotate(570.000000) translate(-45.000000, -79.000000) "></path>
                <path d="M59.6226146,49.9605787 C62.6373789,53.8392137 69.5740818,59.8990409 69.5740818,59.8990409 C70.1017418,60.9261449 72.49473,51.7210816 71.9130404,39.0312937 C71.6790574,33.9273038 70.3405177,29.0073115 66.9214029,24.532196 C65.6904867,22.9207052 61.1886014,17.7260123 57.2923705,19.2558703 C53.2514796,20.8427417 53.0140108,29.2249988 53.0039892,30.9842059 C52.9578026,38.970825 56.335088,45.7307934 59.6226146,49.9605787 Z" id="Fill-197" fill="#5FAA65" transform="translate(62.503521, 39.477241) rotate(-300.000000) translate(-62.503521, -39.477241) "></path>
            </g>
        </g>
    </g>
</svg>