<?xml version="1.0" encoding="UTF-8"?>
<svg width="203px" height="127px" viewBox="0 0 203 127" version="1.1" xmlns="http://www.w3.org/2000/svg" xmlns:xlink="http://www.w3.org/1999/xlink">
    <!-- Generator: Sketch 49.3 (51167) - http://www.bohemiancoding.com/sketch -->
    <title>Group</title>
    <desc>Created with Sketch.</desc>
    <defs></defs>
    <g id="Page-1" stroke="none" stroke-width="1" fill="none" fill-rule="evenodd">
        <g id="Desktop-HD-1" transform="translate(-482.000000, -89.000000)">
            <g id="Group" transform="translate(473.000000, 80.000000)">
                <g id="Group-7" transform="translate(74.000000, 48.000000)">
                    <path d="M93.9384109,48.8174599 C93.3981574,58.7698031 89.4894231,67.7220598 82.8956288,75.1270129 C76.4044827,82.4133573 63.7328362,85.4998776 54.4958515,87.1010942 C44.7388728,88.7912674 34.3227848,88.3033546 25.4761333,83.8636175 C18.388007,80.3080539 12.7369551,74.4665784 7.59644277,68.4364073 C0.270604936,59.8372808 -1.1205479,47.0545042 0.751430575,35.9780746 C1.02966114,34.3229449 1.3835272,32.7055543 1.79952242,31.1474681 C2.91514595,26.9746005 4.59533442,22.9338197 6.97244994,19.3243432 C10.6947967,13.6742588 16.0595143,9.20756527 22.0185107,5.98895807 C36.9376118,-2.07373383 56.0612361,-2.07103818 70.7210156,6.45530568 C72.047338,7.22626184 73.3331414,8.06730493 74.5703219,8.97304364 C87.0096594,18.0493003 94.7758039,33.441467 93.9384109,48.8174599" id="Fill-145" fill="#D9417B"></path>
                    <path d="M93.9384109,49.4743263 C93.3981574,59.2598258 89.4894231,68.0620045 82.8956288,75.342819 C76.4044827,82.5070132 63.7328362,85.5417903 54.4958515,87.1161637 C44.7388728,88.7780024 34.3227848,88.298269 25.4761333,83.9329609 C18.388007,80.4370037 12.7369551,74.6934562 7.59644277,68.7643765 C0.270604936,60.3094081 -1.1205479,47.7409253 0.751430575,36.8501838 C0.900000295,44.6743427 3.2365968,52.4481428 7.32091347,57.412455 C17.045477,69.2308575 33.0666953,73.3231682 47.8426293,69.7397459 C61.3422143,66.4690779 76.1937838,55.2152234 79.6757178,41.3321122 C82.7200464,29.1744507 77.6362607,20.5551538 74.5703219,10.2978723 C87.0096594,19.2219722 94.7758039,34.3561006 93.9384109,49.4743263" id="Fill-148" fill="#BE2A69"></path>
                </g>
                <ellipse id="Oval-2" fill="#83284F" cx="119.5" cy="84" rx="10.5" ry="7"></ellipse>
                <g id="Group-8" transform="translate(164.000000, 46.500000) rotate(-7.000000) translate(-164.000000, -46.500000) translate(115.000000, 11.000000)">
                    <path d="M25.2760881,52.7217274 C17.8944489,49.5300661 12.3416099,44.2159122 11.3695134,35.8289318 C10.6421894,29.5310325 16.4887554,24.1869115 20.6918489,19.9240149 C32.3010589,8.15523755 48.5259789,-0.205909215 65.2719146,0.0038600189 C70.5799811,0.0706830589 75.8251061,1.50255614 80.5771893,3.83068463 C85.8537851,6.41370513 90.6163586,10.1650955 93.8473556,15.0169993 C97.0748558,19.8689031 98.6833608,25.8643765 97.7252513,31.5891132 C96.427957,39.3367969 90.5988748,45.8134651 83.6403423,49.6444231 C76.6853066,53.4757255 68.6742523,55.0009442 60.7576103,55.9399112 C48.8232026,57.3562841 36.2873539,57.481319 25.2760881,52.7217274" id="Fill-139" fill="#87B840"></path>
                    <path d="M69.5020506,23.6691644 C67.5767396,23.9664133 65.5819228,23.876817 63.63576,24.1772282 C61.8633618,24.4505848 60.10834,24.821619 58.3602688,25.2112752 C54.7251147,26.021507 51.1247136,26.9919581 47.5764418,28.1215745 C40.9282108,30.2371017 34.342535,32.8494494 28.1877952,36.1673241 C15.607243,42.9460764 7.39513117,53.816394 0.454975716,66.1160364 C-1.61282223,69.7838638 3.91636522,73.0458726 6.05019369,69.4216136 C9.32391749,63.8546955 12.4134509,58.1300176 16.2571224,52.9327283 C20.3023607,47.4659473 25.3693345,43.0876737 31.1000888,39.5175238 C36.9351018,35.8844808 43.1975756,32.8888015 49.5851598,30.4004833 C52.7859025,29.1535133 56.0352993,28.0361945 59.3263996,27.0541485 C61.0397179,26.5432738 62.763462,26.0763189 64.4837309,25.5953096 C66.1657716,25.1251924 67.8964663,24.3497451 69.5993588,24.0250901 C69.8322032,23.9804677 69.7279445,23.6340286 69.5020506,23.6691644" id="Fill-143" fill="#83284F"></path>
                </g>
                <g id="Group-9" transform="translate(64.500000, 63.500000) rotate(313.000000) translate(-64.500000, -63.500000) translate(29.000000, 9.000000)">
                    <path d="M29.8393069,71.5474843 C27.7238586,66.3361864 27.4918639,60.1350831 23.6960864,55.9914792 C20.6279131,52.64227 15.9031256,51.4308612 12.2166434,48.7812707 C7.66885928,45.5123626 4.97668932,40.263499 2.96228766,35.0287656 C0.681865377,29.1033741 -0.957564055,22.5831344 0.633747952,16.4357949 C3.18568999,6.57806373 13.7137827,0.385921086 23.8634663,0.0206029359 C29.1845662,-0.171016773 34.6087748,0.968017648 39.1898975,3.68825931 C51.2886805,10.8722752 54.9569468,26.8363337 65.075354,36.6254816 C66.8900683,38.3790087 68.9522437,39.9901996 70.0658184,42.2565507 C71.8392893,45.869754 70.770395,50.187401 69.4780985,54.0011846 C66.9725554,61.4040467 63.5424703,75.2420226 54.5823182,77.2726401 C51.0996477,78.0622098 47.2327252,77.2560974 43.7445555,76.9049094 C38.5595592,76.3834695 32.1547861,77.2519617 29.8393069,71.5474843" id="Fill-141" fill="#87B840"></path>
                    <path d="M28.6609456,23.260191 C33.8251163,28.9819072 38.8749937,34.4800516 42.9444651,41.0503084 C46.8625939,47.3767001 49.9104158,54.1932297 52.0229199,61.3038421 C56.3090942,75.7369442 56.2287044,90.3688531 52.9760633,104.975309 C52.0770957,109.013358 58.2594206,110.741396 59.3009928,106.691652 C65.3651798,83.184978 58.3083536,56.0488749 43.5781464,36.9455317 C39.4974903,31.6541051 34.7499485,26.3912269 29.0779239,22.7284343 C28.7371411,22.5083021 28.4120867,22.9843379 28.6609456,23.260191" id="Fill-144" fill="#83284F"></path>
                </g>
            </g>
        </g>
    </g>
</svg>