<?xml version="1.0" encoding="UTF-8"?>
<svg width="78px" height="87px" viewBox="0 0 78 87" version="1.1" xmlns="http://www.w3.org/2000/svg" xmlns:xlink="http://www.w3.org/1999/xlink">
    <!-- Generator: Sketch 49.3 (51167) - http://www.bohemiancoding.com/sketch -->
    <title>Group 3</title>
    <desc>Created with Sketch.</desc>
    <defs>
        <radialGradient cx="50%" cy="50%" fx="50%" fy="50%" r="71.8067756%" gradientTransform="translate(0.500000,0.500000),scale(1.000000,0.970149),rotate(45.868051),translate(-0.500000,-0.500000)" id="radialGradient-1">
            <stop stop-color="#FAD961" offset="0%"></stop>
            <stop stop-color="#F76B1C" offset="100%"></stop>
        </radialGradient>
    </defs>
    <g id="Page-1" stroke="none" stroke-width="1" fill="none" fill-rule="evenodd">
        <g id="Desktop-HD-1" transform="translate(-755.000000, -513.000000)">
            <g id="Group-3" transform="translate(750.000000, 495.000000)">
                <g id="Group-4" transform="translate(49.500000, 68.500000) rotate(242.000000) translate(-49.500000, -68.500000) translate(17.000000, 35.000000)">
                    <path d="M61.2404931,43.2375736 C60.8067215,44.5609509 60.3467927,45.8777768 59.8650664,47.1814999 C58.1430583,51.828607 57.4091746,57.4470034 53.7813643,60.7035332 C38.3878726,74.5216107 -6.03249473,66.3468747 0.686841017,28.7044452 C1.0550649,26.641616 2.33473738,24.7102916 3.3090888,22.6684471 C3.84094953,21.5547138 4.40332686,20.4366128 4.99622079,19.3316147 C8.72796494,12.382792 13.6803731,5.87291137 19.9929496,2.96410189 C23.2604055,1.45946997 26.6891634,0.487683017 30.1092023,0.142644056 C34.7084898,-0.322503405 39.2816201,0.334817654 43.3948218,2.33735391 C49.60277,5.35316913 55.5818437,8.78390463 59.5381028,15.1365523 C61.5391198,18.3860332 63.9673692,21.8298714 64.7281045,25.6340352 C65.8506794,31.2551129 63.2502292,37.2387 61.430132,42.6676042 C61.3647393,42.8597778 61.3015263,43.0475838 61.2404931,43.2375736 Z" id="Fill-151" fill="url(#radialGradient-1)"></path>
                    <path d="M15.4843163,55.5404357 C17.535109,57.3118133 20.0766371,58.7517942 21.8622843,60.8246016 C22.1326678,61.1357551 21.7935351,61.7509983 21.3998742,61.7084261 C18.5788774,61.3965614 15.7832287,59.4399175 13.5384128,57.8214934 C10.9666192,55.9683323 8.62924873,53.8359033 6.52722595,51.3981166 C5.1611799,49.8186436 7.83003907,47.4115434 9.17722032,49.0164886 C11.1392124,51.3507749 13.2039851,53.5725032 15.4843163,55.5404357 Z" id="Fill-157" fill="#DA6830"></path>
                    <path d="M8.13054831,21.8374883 C7.74599618,22.1988843 7.13834447,22.0697992 7.05236115,21.4945397 C6.79535688,19.7793056 8.55031656,17.9226684 9.75409923,16.9660187 C10.8200823,16.1184803 12.1198606,17.989507 10.9705955,18.7072811 C10.349303,19.0970975 9.80338524,19.5444917 9.33898922,20.1180006 C8.90443895,20.656831 8.62736328,21.3698233 8.13054831,21.8374883 Z" id="Fill-161" fill="#DA6830"></path>
                </g>
                <circle id="Oval-2" fill="#559F25" cx="47.5" cy="71.5" r="13.5"></circle>
                <path d="M33.1919662,101.950109 C27.6429538,95.0414703 25.6262127,84.7113972 27.9478446,75.1091646 C28.2973535,73.6680989 28.7554333,72.2065719 29.6076403,71.0081197 C30.4613345,69.8096675 31.7820322,68.9093669 33.0789335,69.0072892 C34.0174022,69.0774425 34.8324273,69.6518226 35.4689798,70.3694324 C37.3414555,72.484262 37.8367171,75.7478519 37.7668153,78.8638275 C37.6954262,81.9798032 37.1451355,85.1293939 37.2685791,88.2219851 C38.9655566,82.1814939 42.7923079,76.7095367 47.6988187,73.3100248 C49.6709416,71.9449585 52.2513588,70.9233511 54.0018781,72.267956 C54.6994087,72.8028749 55.1515395,73.6520221 55.4445321,74.5508612 C56.3963862,77.4782999 55.761321,80.972811 54.3617979,83.9280187 C52.9607876,86.8832264 50.8637338,89.3955913 48.7369347,91.7968803 C51.3441228,90.4537369 54.0033654,89.1120551 56.7771279,88.6414434 C59.5523777,88.1722932 62.504613,88.6882123 64.423194,90.7109657 C65.5743427,91.9254946 66.3001315,93.7772494 65.8792335,95.6100043 C65.5193136,97.1826074 64.400885,98.4702127 63.231889,99.5093584 C57.6709785,104.44932 50.3878068,105.53085 43.5879985,106 L33.1919662,101.950109" id="Fill-150" fill="#56AA1F" transform="translate(46.500000, 87.500000) rotate(520.000000) translate(-46.500000, -87.500000) "></path>
                <path d="M12.4582224,23.6423752 C12.9959285,21.367875 13.7006667,19.0610798 15.0117543,17.1695076 C16.32513,15.2779355 18.3569725,13.8569496 20.3522053,14.0115049 C21.7960034,14.1222311 23.0498882,15.0288016 24.0291997,16.1614381 C26.9099315,19.4993709 27.6718724,24.6504447 27.5643312,29.5685323 C27.4545019,34.4866198 26.6079008,39.4577636 26.797814,44.3389425 C29.4085487,34.8049576 35.2958583,26.168316 42.8443365,20.8027102 C45.8783717,18.6481634 49.8482443,17.0357135 52.5413509,19.1579652 C53.614475,20.0022522 54.3100607,21.3425003 54.7608186,22.7611794 C56.2252096,27.3816903 55.2481862,32.8972379 53.0950738,37.5615779 C50.9396732,42.225918 47.7134367,46.1912991 44.441438,49.9813637 C48.4524965,47.8614189 52.543639,45.7437808 56.810966,45.0009927 C61.0805812,44.2605114 65.6224815,45.0748102 68.5741447,48.2674148 C70.3451426,50.1843617 71.4617408,53.1070713 70.8142053,55.9997926 C70.2604825,58.4819043 68.539823,60.514191 66.7413678,62.1543224 C58.1861207,69.9512905 41,70.8755864 20.5261018,66.0066706 C11.9891596,55.1024493 8.88648112,38.7980202 12.4582224,23.6423752 Z" id="Fill-150" fill="#5CBA1F" transform="translate(41.000000, 41.500000) rotate(307.000000) translate(-41.000000, -41.500000) "></path>
            </g>
        </g>
    </g>
</svg>